mia rfid
…
why does the time keep resetting back back to 0? was filming paused? using this subtraction method wont work for the time elapsed column

look at row 976

df

## # A tibble: 8,486 x 6
##    cantimestamp datetimestamp          deviceid antennaID data              time
##           <dbl> <chr>                     <dbl>     <dbl> <chr>            <dbl>
##  1      6158602 10.06.2021 00:00:54:0~       19         1 9001330004597~  6.08e6
##  2      7098446 10.06.2021 00:00:54:6~       19         1 <NA>            7.02e6
##  3      7233324 10.06.2021 00:00:54:7~       19         1 9001330004596~  7.15e6
##  4      7583379 10.06.2021 00:00:54:9~       19         1 <NA>            7.50e6
##  5      7675297 10.06.2021 00:00:55:0~       19         2 9001330004597~  7.59e6
##  6      8320845 10.06.2021 00:00:55:4~       19         2 <NA>            8.24e6
##  7      8723688 10.06.2021 00:00:55:7~       19         2 9001330004596~  8.64e6
##  8      9123518 10.06.2021 00:00:56:0~       19         2 <NA>            9.04e6
##  9     49296901 10.06.2021 00:01:22:8~       17         1 9001330004597~  4.92e7
## 10     51220593 10.06.2021 00:01:24:0~       17         1 <NA>            5.11e7
## # ... with 8,476 more rows
…
ms<-
  (3600000 * as.numeric(xxx[,1])) +
(60000 * as.numeric(xxx[,2])) +
(1000 * as.numeric(xxx[,3])) +
(1 * as.numeric(xxx[,4]))

df

## # A tibble: 8,486 x 7
##    cantimestamp datetimestamp      deviceid antennaID data      time     date   
##           <dbl> <chr>                 <dbl>     <dbl> <chr>     <chr>    <chr>  
##  1      6158602 10.06.2021 00:00:~       19         1 90013300~ 00:00:5~ 10.06.~
##  2      7098446 10.06.2021 00:00:~       19         1 <NA>      00:00:5~ 10.06.~
##  3      7233324 10.06.2021 00:00:~       19         1 90013300~ 00:00:5~ 10.06.~
##  4      7583379 10.06.2021 00:00:~       19         1 <NA>      00:00:5~ 10.06.~
##  5      7675297 10.06.2021 00:00:~       19         2 90013300~ 00:00:5~ 10.06.~
##  6      8320845 10.06.2021 00:00:~       19         2 <NA>      00:00:5~ 10.06.~
##  7      8723688 10.06.2021 00:00:~       19         2 90013300~ 00:00:5~ 10.06.~
##  8      9123518 10.06.2021 00:00:~       19         2 <NA>      00:00:5~ 10.06.~
##  9     49296901 10.06.2021 00:01:~       17         1 90013300~ 00:01:2~ 10.06.~
## 10     51220593 10.06.2021 00:01:~       17         1 <NA>      00:01:2~ 10.06.~
## # ... with 8,476 more rows
…
